{
  "_pkglts": {
    "auto_install": true,
    "install_front_end": "stdout",
    "use_prompts": false,
    "version": 18
  },
  "base": {
    "authors": [
      [
        "revesansparole",
        "revesansparole@gmail.com"
      ]
    ],
    "namespace": null,
    "pkgname": "scenegraph",
    "url": null
  },
  "conda": {
    "env_name": "{{ base.pkgname }}"
  },
  "coverage": {},
  "data": {
    "filetype": [
      ".json",
      ".ini",
      ".csv",
      ".rst",
      ".svg"
    ],
    "use_ext_dir": false
  },
  "doc": {
    "description": "Simple organisation of shapes in space",
    "fmt": "rst",
    "keywords": []
  },
  "git": {
    "permanent_branches": [
      "main"
    ]
  },
  "gitlab": {
    "owner": "{{ base.authors[0][0] }}",
    "project": "{{ base.pkgname }}",
    "server": "gitlab.com",
    "url": "https://{{ gitlab.server }}/{{ gitlab.owner }}/{{ gitlab.project }}"
  },
  "glabbase": {
    "docker": "revesansparole/glabci"
  },
  "glabpkg": {},
  "glabpkg_dev": {
    "user_doc": "user"
  },
  "license": {
    "name": "cc_by_nc",
    "organization": "revesansparole",
    "project": "{{ base.pkgname }}",
    "year": 2022
  },
  "pypi": {
    "classifiers": [
      "Development Status :: 2 - Pre-Alpha",
      "Intended Audience :: Developers",
      "License :: OSI Approved :: BSD License",
      "Natural Language :: English"
    ],
    "servers": [
      {
        "name": "pypi",
        "url": "https://upload.pypi.org/legacy/"
      },
      {
        "name": "test",
        "url": "https://testpypi.python.org/pypi"
      }
    ]
  },
  "pyproject": {
    "intended_versions": [
      "3.11",
      "3.10",
      "3.9"
    ]
  },
  "reqs": {
    "require": [
      {
        "intent": [
          "example"
        ],
        "name": "matplotlib"
      },
      {
        "name": "numpy"
      }
    ]
  },
  "sphinx": {
    "autodoc_dvlpt": true,
    "build_dir": "build/sphinx",
    "doc_dir": "doc",
    "gallery": "example",
    "theme": "sphinx_rtd_theme"
  },
  "src": {
    "namespace_method": "pkg_util"
  },
  "test": {
    "suite_name": "pytest"
  },
  "version": {
    "major": 1,
    "minor": 0,
    "post": 0
  }
}